Advanced Synthetic Control Analysis: COVID-19 Vaccine Lotteries
…
Time series of the difference, Observed – Synthetic New Mexico, in percent fully vaccinated rate by week, starting from the week ending 1/17/21.

## Create a data set with the weights and sort largest to smallest in absolute value.
NM_as_w <- tibble(State=rownames(NM_as$weights),
                  Weight=NM_as$weights[,1]) %>%
  arrange(desc(abs(Weight)))
## Print results:
NM_as_w

# A tibble: 32 × 2
   State   Weight
   <chr>    <dbl>
 1 CT     5.49e-1
 2 AK     4.48e-1
 3 SD     2.86e-3
 4 KS    -1.24e-8
 5 FL    -6.50e-9
 6 DC    -5.81e-9
 7 TX    -4.84e-9
 8 UT    -4.73e-9
 9 AZ    -4.56e-9
10 GA    -4.53e-9
# ℹ 22 more rows
…
Time series of the difference, Observed – De-meaned Synthetic New Mexico, in percent fully vaccinated rate by week, starting from the week ending 1/17/21.

We can print the weights that come from the de-meaned SC fit. Notice there are meaningful differences from the standard SC fit weights.

## Create a data set with the weights and sort largest to smallest in absolute value.
NM_as_fe_w <- tibble(State=rownames(NM_as_fe$weights),
                  Weight=NM_as_fe$weights[,1]) %>%
  arrange(desc(abs(Weight)))
## Print results:
NM_as_fe_w

# A tibble: 32 × 2
   State   Weight
   <chr>    <dbl>
 1 CT     3.83e-1
 2 SD     3.51e-1
 3 AK     2.33e-1
 4 RI     3.27e-2
 5 KS    -6.58e-9
 6 FL    -5.88e-9
 7 TX    -4.94e-9
 8 UT    -4.52e-9
 9 GA    -4.02e-9
10 MO    -3.95e-9
# ℹ 22 more rows
…
Time series of the difference, Observed – Ridge-adjusted Synthetic New Mexico, in percent fully vaccinated rate by week, starting from the week ending 1/17/21.

We can print the weights that come from the ridge-augmented SC fit. Notice there are meaningful differences from the previous weights and now there are states that get non-negligible negative weights.

## Create a data set with the weights and sort largest to smallest in absolute value.
NM_as_r_w <- tibble(State=rownames(NM_as_r$weights),
                  Weight=NM_as_r$weights[,1]) %>%
  arrange(desc(abs(Weight)))
## Print results:
NM_as_r_w

# A tibble: 32 × 2
   State Weight
   <chr>  <dbl>
 1 UT    -0.328
 2 RI     0.318
 3 HI     0.305
 4 SD     0.296
 5 IN     0.285
 6 KS    -0.266
 7 AK     0.235
 8 PA    -0.226
 9 CT     0.151
10 FL     0.150
# ℹ 22 more rows
…
